{"msg":"init","dagFile":"artifacts\\tundra.dag","targets":[]}
{"msg":"enqueueNode","enqueuedNodeAnnotation":"all_tundra_nodes","enqueuedNodeIndex":0}
{"msg":"enqueueNode","enqueuedNodeAnnotation":"Il2Cpp C:/Users/a/Workspace/Unity/Jump Race/Library/Il2cppBuildCache/Android/armeabi-v7a/Native/armeabi-v7a/libil2cpp.so","enqueuedNodeIndex":1,"enqueueingNodeAnnotation":"all_tundra_nodes","enqueueingNodeIndex":0}
