Library\Bee\artifacts\movedfrom\UnityEngine.AccessibilityModule.dll_16039533381263954720.movedfrom
Library\Bee\artifacts\movedfrom\UnityEngine.AIModule.dll_11698243873933513562.movedfrom
Library\Bee\artifacts\movedfrom\UnityEngine.AndroidJNIModule.dll_5691372960954238488.movedfrom
Library\Bee\artifacts\movedfrom\UnityEngine.AnimationModule.dll_13482348719055382982.movedfrom
Library\Bee\artifacts\movedfrom\UnityEngine.ARModule.dll_6614459462823424547.movedfrom
Library\Bee\artifacts\movedfrom\UnityEngine.AssetBundleModule.dll_15315968802599916980.movedfrom
Library\Bee\artifacts\movedfrom\UnityEngine.AudioModule.dll_17001525688081426744.movedfrom
Library\Bee\artifacts\movedfrom\UnityEngine.ClothModule.dll_5970060633308301340.movedfrom
Library\Bee\artifacts\movedfrom\UnityEngine.CoreModule.dll_12195126678832377073.movedfrom
Library\Bee\artifacts\movedfrom\UnityEngine.CrashReportingModule.dll_4582913612749144361.movedfrom
Library\Bee\artifacts\movedfrom\UnityEngine.DirectorModule.dll_2931726173903056718.movedfrom
Library\Bee\artifacts\movedfrom\UnityEngine.dll_5233891216590653908.movedfrom
Library\Bee\artifacts\movedfrom\UnityEngine.DSPGraphModule.dll_3314920722724667503.movedfrom
Library\Bee\artifacts\movedfrom\UnityEngine.GameCenterModule.dll_8739546962609682185.movedfrom
Library\Bee\artifacts\movedfrom\UnityEngine.GIModule.dll_4221222915386981236.movedfrom
Library\Bee\artifacts\movedfrom\UnityEngine.GridModule.dll_9704948269297566440.movedfrom
Library\Bee\artifacts\movedfrom\UnityEngine.HotReloadModule.dll_4351509406923375944.movedfrom
Library\Bee\artifacts\movedfrom\UnityEngine.ImageConversionModule.dll_4315775965229803091.movedfrom
Library\Bee\artifacts\movedfrom\UnityEngine.IMGUIModule.dll_2616922267043970329.movedfrom
Library\Bee\artifacts\movedfrom\UnityEngine.InputLegacyModule.dll_7337027455995120549.movedfrom
Library\Bee\artifacts\movedfrom\UnityEngine.InputModule.dll_5937808339227233756.movedfrom
Library\Bee\artifacts\movedfrom\UnityEngine.JSONSerializeModule.dll_4516943150437987242.movedfrom
Library\Bee\artifacts\movedfrom\UnityEngine.LocalizationModule.dll_14052088650890434875.movedfrom
Library\Bee\artifacts\movedfrom\UnityEngine.ParticleSystemModule.dll_10568841060090940599.movedfrom
Library\Bee\artifacts\movedfrom\UnityEngine.PerformanceReportingModule.dll_15823846810148942512.movedfrom
Library\Bee\artifacts\movedfrom\UnityEngine.Physics2DModule.dll_558688980157735259.movedfrom
Library\Bee\artifacts\movedfrom\UnityEngine.PhysicsModule.dll_17887716458404719369.movedfrom
Library\Bee\artifacts\movedfrom\UnityEngine.ProfilerModule.dll_6554372030832997979.movedfrom
Library\Bee\artifacts\movedfrom\UnityEngine.RuntimeInitializeOnLoadManagerInitializerModule.dll_12910602472871872548.movedfrom
Library\Bee\artifacts\movedfrom\UnityEngine.ScreenCaptureModule.dll_6383594508091236364.movedfrom
Library\Bee\artifacts\movedfrom\UnityEngine.SharedInternalsModule.dll_13832232539388830115.movedfrom
Library\Bee\artifacts\movedfrom\UnityEngine.SpriteMaskModule.dll_7094733162074426499.movedfrom
Library\Bee\artifacts\movedfrom\UnityEngine.SpriteShapeModule.dll_17144761593906662846.movedfrom
Library\Bee\artifacts\movedfrom\UnityEngine.StreamingModule.dll_8047890797913497860.movedfrom
Library\Bee\artifacts\movedfrom\UnityEngine.SubstanceModule.dll_5501971938594512658.movedfrom
Library\Bee\artifacts\movedfrom\UnityEngine.SubsystemsModule.dll_14781645871324411030.movedfrom
Library\Bee\artifacts\movedfrom\UnityEngine.TerrainModule.dll_1334308794013676535.movedfrom
Library\Bee\artifacts\movedfrom\UnityEngine.TerrainPhysicsModule.dll_10603366631865026372.movedfrom
Library\Bee\artifacts\movedfrom\UnityEngine.TextCoreModule.dll_13937067817481494366.movedfrom
Library\Bee\artifacts\movedfrom\UnityEngine.TextRenderingModule.dll_9355814177528160257.movedfrom
Library\Bee\artifacts\movedfrom\UnityEngine.TilemapModule.dll_12790454150284072192.movedfrom
Library\Bee\artifacts\movedfrom\UnityEngine.TLSModule.dll_4101850158032884125.movedfrom
Library\Bee\artifacts\movedfrom\UnityEngine.UIElementsModule.dll_15087434795389907085.movedfrom
Library\Bee\artifacts\movedfrom\UnityEngine.UIElementsNativeModule.dll_5040853832262255556.movedfrom
Library\Bee\artifacts\movedfrom\UnityEngine.UIModule.dll_11370499443724474630.movedfrom
Library\Bee\artifacts\movedfrom\UnityEngine.UmbraModule.dll_7405670003509056683.movedfrom
Library\Bee\artifacts\movedfrom\UnityEngine.UNETModule.dll_4315595248140051050.movedfrom
Library\Bee\artifacts\movedfrom\UnityEngine.UnityAnalyticsModule.dll_12847505008042696371.movedfrom
Library\Bee\artifacts\movedfrom\UnityEngine.UnityConnectModule.dll_17472085100658398247.movedfrom
Library\Bee\artifacts\movedfrom\UnityEngine.UnityCurlModule.dll_17165344548043430835.movedfrom
Library\Bee\artifacts\movedfrom\UnityEngine.UnityTestProtocolModule.dll_11138437724213086625.movedfrom
Library\Bee\artifacts\movedfrom\UnityEngine.UnityWebRequestAssetBundleModule.dll_6542298703900921796.movedfrom
Library\Bee\artifacts\movedfrom\UnityEngine.UnityWebRequestAudioModule.dll_6022980336286891336.movedfrom
Library\Bee\artifacts\movedfrom\UnityEngine.UnityWebRequestModule.dll_5585518012081209554.movedfrom
Library\Bee\artifacts\movedfrom\UnityEngine.UnityWebRequestTextureModule.dll_15674724062310534173.movedfrom
Library\Bee\artifacts\movedfrom\UnityEngine.UnityWebRequestWWWModule.dll_17193335992846553305.movedfrom
Library\Bee\artifacts\movedfrom\UnityEngine.VehiclesModule.dll_11561460335804071657.movedfrom
Library\Bee\artifacts\movedfrom\UnityEngine.VFXModule.dll_13387877241528744714.movedfrom
Library\Bee\artifacts\movedfrom\UnityEngine.VideoModule.dll_1223591462631359709.movedfrom
Library\Bee\artifacts\movedfrom\UnityEngine.VRModule.dll_17338374255329664638.movedfrom
Library\Bee\artifacts\movedfrom\UnityEngine.WindModule.dll_2273374717063195482.movedfrom
Library\Bee\artifacts\movedfrom\UnityEngine.XRModule.dll_2548204553341119452.movedfrom